group1,group2,group3,group4,group5,group6,group7,group8,group9,group10,group11,group12,group13,group14,group15,group16,group17,group18,group19,group20,group21,group22,group23,group24,group25,group26,group27,group28,group29,group30,group31,group32,group33,grouping
9.999999999999999e-26,65.54,214.9,431.6,28.48,3.775,98.83,103.6,624.9,43.58,293.4,144.8,38.09,159.6,789.6,3557.0,7.892,48.73,102.6,47.01,174.0,91.24,416.3,11.27,322.2,86.1,119.094235392351,786.955010477819,1490.03931991497,2238.5967010669638,2492.7065492020597,2728.47544932455,2867.83304544492,group1
9.999999999999999e-26,105.7,294.9,575.0,20.25,8.922,136.2,103.6,774.1,60.05,170.9,401.5,88.19,227.8,1829.0,11195.0,35.0,44.27,260.1,169.5,239.5,94.24,513.4,55.48,201.4,87.5,231.764932634265,1819.78950589152,4577.534116427425,4193.424188842811,4030.92859008272,7634.1040021397,7880.21936447945,group1
65.54,9.999999999999999e-26,39.05,134.5,37.75,29.85,25.05,5.147,-17.84,8.579,63.48,141.4,83.73,136.6,439.9,4324.0,59.71,9.608,64.85,34.31,155.4,44.0,520.52,113.6,55.9,107.4,85.5182844764462,437.726966246218,925.56941923264,598.82077332738,464.853103999011,3667.4485726135003,3802.20009334002,group2
105.7,9.999999999999999e-26,41.59,183.9,74.81,65.88,64.51,-7.549,-4.118,27.79,-74.46,237.1,188.7,124.6,504.8,12126.0,82.35,50.79,51.82,51.13,240.9,45.55,673.22,231.6,-28.5,200.8,127.201205251163,501.782086195595,1764.26413560633,1332.567341872101,1017.9556517285174,7389.938937703696,6328.74456944622,group2
214.9,39.05,9.999999999999999e-26,-86.13,131.4,156.1,56.62,48.73,18.3698021050799,73.09,-120.8,191.8,383.6,192.5,374.0,971.4,147.9,84.76,91.62,9.999999999999999e-26,326.0,165.815599920421,728.1,185.8,-70.0,153.246365077668,182.563487474614,372.199890528443,120.7680123905508,199.279549514672,155.808209543163,210.24923165254597,324.561966065484,group3
294.9,41.59,9.999999999999999e-26,85.1,157.5,96.77,129.7,-89.22,182.175325092956,71.37,18.53,380.9,375.4,562.8,520.9,567.6,-55.9,193.2,54.9,9.999999999999999e-26,287.9,323.975305673661,750.9,634.2,233.7,28.8577448972539,342.784102539329,488.074986065007,255.2988002265909,241.56181656865948,182.4742202127734,346.03807130408,333.503785681135,group3
431.6,134.5,-86.13,9.999999999999999e-26,309.5,388.1,170.5,128.3,202.71631826115,208.6,25.05,377.5,341.8,330.8,685.9,1115.36996441558,366.8,181.2,9.999999999999999e-26,9.999999999999999e-26,548.3,570.717909904234,48.5468363411878,899.0,220.141118392907,384.653625031706,457.037370577117,565.55610269243,145.395612839928,384.243636135404,388.078889967059,605.064029373463,603.815950606386,group4
575.0,183.9,85.1,9.999999999999999e-26,35.69,-224.8,284.1,189.1,495.269225159233,294.4,81.33,162.7,635.2,-297.2,1547.0,1963.8745020145798,-219.3,419.0,9.999999999999999e-26,9.999999999999999e-26,2343.0,927.220110808175,173.59143073026002,4655.0,339.95890205923405,448.885269345422,872.443479506719,1595.199308653884,669.627089808685,512.3731248547728,404.636689065393,1238.20765660835,1433.9299213003,group4
28.48,37.75,131.4,309.5,9.999999999999999e-26,9.951,67.26,106.7,249.1,33.97,188.0,134.9,30.88,181.9,701.7,2265.0,19.22,48.73,9.999999999999999e-26,9.999999999999999e-26,156.1,14.43,394.5,15.97,240.6,11.4507394169537,59.2445635858998,699.090661812842,803.026467538946,692.973819145968,498.009316655714,1485.777436094304,1260.074772416188,group5
20.25,74.81,157.5,35.69,9.999999999999999e-26,13.73,167.5,190.8,408.3,5.49,473.9,219.3,37.06,304.0,1318.0,4722.0,33.29,68.29,9.999999999999999e-26,9.999999999999999e-26,92.99,20.92,378.1,24.48,347.3,16.8948401117288,93.7008810941763,1312.50686493543,1191.013117612976,930.7171675988039,687.46927756886,2324.59367628808,2334.27413052352,group5
3.775,29.85,156.1,388.1,9.951,9.999999999999999e-26,41.18,67.94,317.147780896934,12.7,118.0,136.2,61.59,157.2,157.2,2333.0,7.549,26.77,9.999999999999999e-26,9.999999999999999e-26,137.6,15.42,581.3,43.81,157.2,25.980275965124,63.9832903941272,157.2,102.948740020153,46.0031689842077,39.5451873026368,1686.377953473066,1257.6,group6
8.922,65.88,96.77,-224.8,13.73,9.999999999999999e-26,50.79,210.7,623.589085576944,73.43,-212.8,235.7,84.92,217.1,165.966997734393,5147.0,20.93,-5.147,9.999999999999999e-26,9.999999999999999e-26,150.0,33.3,517.1,53.1,340.247969556428,60.9122827679957,119.576188686168,127.886500916448,165.802252382118,80.7112296573856,76.2853380939272,2806.55653340634,2015.862669218118,group6
98.83,25.05,56.62,170.5,67.26,41.18,1e-25,-16.74,52.5,28.82,129.0,98.48,185.3,21.28,277.6,2268.0,25.74,9.951,-16.47,3.775,288.9,153.4,753.6,195.6,37.1,233.4,129.852888697662,276.239024432853,1091.594026907952,817.4312672894137,660.0927614531265,1375.404079806588,1201.111487562855,group7
136.2,64.51,129.7,284.1,167.5,50.79,9.999999999999999e-26,16.47,251.2,65.54,36.72,253.6,490.7,6.177,449.5,6218.0,78.92,19.9,61.42,1.716,189.1,153.4,590.5,361.3,-23.7,404.9,196.111828588705,446.82218861383,1911.209352928704,1596.2289813577918,1007.9357471116416,3996.6834643765997,2255.741069013276,group7
103.6,5.147,48.73,128.3,106.7,67.94,-16.74,9.999999999999999e-26,-328.0,37.4,-99.17,154.4,343.8,9.608,1002.0,543.5,97.8,-48.38,343.1,242.9,400.1,125.77,753.6,103.656464696815,-196.6,177.1,140.537977635447,995.217192038327,314.78690024975936,298.761109657545,278.179857580166,361.0486004638676,326.2870449872236,group8
103.6,-7.549,-89.22,189.1,190.8,210.7,16.47,9.999999999999999e-26,-569.3,53.53,-193.5,374.4,1712.0,-36.72,-736.4,411.8,67.94,27.79,880.2,-7.206,1201.0,-231.1,590.5,143.118151087117,-397.4,2559.4,27.0039142760595,-734.48161863924,532.982408958228,491.326765647606,441.41870075431683,473.58004223295904,273.4855032960692,group8
624.9,-17.84,240.602325702249,355.362292866814,249.1,64.5121998978781,52.5,-328.0,9.999999999999999e-26,140.7,-99.17,331.1,702.4,9.608,1002.0,1340.0,209.7,669.8,9.999999999999999e-26,9.999999999999999e-26,602.9,197.0,753.6,200.736521807095,19046.2519622612,522.668098075999,254.16223766213,1179.69790882371,454.19238495075604,671.039789150674,637.987554327784,714.0235027396992,811.557056315979,group9
774.1,-4.118,-412.846322696609,774.282013632054,408.3,254.43422868163503,251.2,-569.3,9.999999999999999e-26,277.6,-193.5,276.6,1889.0,-36.72,-736.4,-65.88,3819.0,589.5,9.999999999999999e-26,9.999999999999999e-26,1463.0,-238.8,590.5,2047.6496899695,-9204.82839543339,3065.69538727141,-19.1026301934251,-686.72274369836,-52.47382301305699,-296.38441047925875,-323.10638347523627,-132.200158647294,-407.490153921441,group9
43.58,8.579,73.09,208.6,33.97,12.7,28.82,37.4,140.7,9.999999999999999e-26,139.0,144.1,179.5,117.4,493.1,4211.0,35.34,-15.44,159.6,31.91,236.1,113.1,18.2916755847751,1269.0,65.7588299259337,181.2,-27.5,475.341534585965,50.9142935630377,43.8786748218349,15.1774322147719,2966.547675356475,2601.999468357534,group10
60.05,27.79,71.37,294.4,5.49,73.43,65.54,53.53,277.6,9.999999999999999e-26,35.69,354.1,546.6,166.4,832.1,13031.0,52.5,24.36,140.7,69.32,192.5,143.6,14.329504037544101,18666.0,127.160172915892,281.4,50.1,863.03942529202,61.7718767948365,161.876124493091,76.4877541703626,5386.05886506288,4413.669526959856,group10
293.4,63.48,-120.8,25.05,188.0,118.0,129.0,-99.17,-99.17,139.0,9.999999999999999e-26,216.2,331.5,71.37,463.2,2440.0,297.2,260.1,9.999999999999999e-26,151.3,-51.82,251.889542228011,-47.012874379201,28.7712724478435,77.28636909022259,102.3,23.7079066770829,403.899728749392,115.823944175681,162.825393829049,115.828062677716,1754.087548613546,1751.2879989941212,group11
170.9,-74.46,18.53,81.33,473.9,-212.8,36.72,-193.5,-193.5,35.69,9.999999999999999e-26,-132.8,389.8,-127.7,-337.7,-60.39,-647.2,134.9,9.999999999999999e-26,2.745,34.31,-217.937113627837,149.972307905245,-50.963276480538795,-36.603253313668205,988.0,16.2250128024159,-352.58856853382764,-43.89406849243205,-28.617284262353998,-55.755658154306,-57.46599550781253,-54.919194765279,group11
144.8,141.4,191.8,377.5,134.9,136.2,98.48,154.4,331.1,144.1,216.2,9.999999999999999e-26,95.05,134.9,134.151741773344,559.3,73.09,60.74,74.81,87.85,265.9,106.4,685.9,179.5,46.0,163.4,5.1,132.622228990803,167.870052165331,123.43415514659,138.60281489265,377.044079051244,116.913376162152,group12
401.5,237.1,380.9,162.7,219.3,235.7,253.6,374.4,276.6,354.1,-132.8,9.999999999999999e-26,255.6,201.4,200.20733193794,277.9,106.7,183.9,-266.6,66.91,268.3,158.9,559.3,-1.612,59.7,142.9,48.4,197.7694021147,379.404652664906,243.855483874638,232.180301697027,265.10963403701766,172.730656942373,group12
38.09,83.73,383.6,341.8,30.88,61.59,185.3,343.8,702.4,179.5,331.5,95.05,9.999999999999999e-26,319.5,319.187734755805,2574.0,45.3,59.71,541.5,9.999999999999999e-26,65.2,23.33,204.7,6.488,282.4,7.5,257.0,318.549434145768,1841.9904644895,1264.23091262256,649.286300818584,1870.57466495037,1559.9688557714198,group13
88.19,188.7,375.4,635.2,37.06,84.92,490.7,1712.0,1889.0,546.6,389.8,255.6,9.999999999999999e-26,550.1,548.522681758433,5490.0,92.65,227.2,94.71,9.999999999999999e-26,70.1,-25.4,222.8,8.774,362.7,7.5,98.8,545.298489458679,2507.2512896071503,1884.214345359912,890.516646503508,3201.126245117192,3585.29107817223,group13
159.6,136.6,192.5,330.8,181.9,157.2,21.28,9.608,9.608,117.4,71.37,134.9,319.5,9.999999999999999e-26,-157.0,603.9,145.613020929847,9.999999999999999e-26,9.999999999999999e-26,9.999999999999999e-26,145.8,139.249772933384,15.5298417423916,14.3516684322671,232.57718196544002,152.21980270214,137.486251598313,-160.073949521085,458.57973525591444,376.994162233776,313.533738920574,555.8420869445808,505.99656252779,group14
227.8,124.6,562.8,-297.2,304.0,217.1,6.177,-36.72,-36.72,166.4,-127.7,201.4,550.1,9.999999999999999e-26,153.7,599.1,208.942351058233,9.999999999999999e-26,9.999999999999999e-26,9.999999999999999e-26,823.5,204.462396190768,74.9293890077342,20.7466454881881,-191.317466180156,213.59376244052,203.220813905539,153.29488409797798,479.485423390989,504.0373663926486,433.590121123454,588.244301300048,530.521469227617,group14
789.6,439.9,374.0,685.9,701.7,64.6858022254616,277.6,1002.0,1002.0,493.1,463.2,12.183444604707699,99.4686683726932,-157.0,9.999999999999999e-26,30.88,64.6858022254616,9.999999999999999e-26,9.999999999999999e-26,9.999999999999999e-26,-48.253841372427004,27.626282125068297,-31.4874661676077,49.3540861669022,-46.216005604440994,91.328510130525,20.8506933731774,-0.2,33.4415204230629,48.73257317072425,48.03571350096945,28.259158828735384,21.651981147421303,group15
1829.0,504.8,520.9,1547.0,1318.0,-46.3654638143946,449.5,-736.4,-736.4,832.1,-337.7,-60.4419675811071,-73.0783448822556,153.7,9.999999999999999e-26,-113.0,-46.3654638143946,9.999999999999999e-26,9.999999999999999e-26,9.999999999999999e-26,-55.664804256325596,-17.9041360824187,-45.9177988755945,-34.5908646222258,35.8246700504857,-66.8267876334601,-12.7005540737405,7.02535411217272,-45.018547459467,-59.616383921860255,-58.724415569762584,-105.64804855346699,-94.22085331856835,group15
3557.0,4324.0,971.4,1224.95439009468,2265.0,2333.0,2268.0,543.5,1340.0,4211.0,2440.0,559.3,2574.0,603.9,30.88,9.999999999999999e-26,1650.0,2243.0,9.999999999999999e-26,9.999999999999999e-26,830.8,732.277838324221,859.548142629264,135.41912005202101,374.4,1376.0,616.247490404675,32.8239597789037,1478.662297306108,1958.242105045528,1603.976251853017,1643.2156296787352,1264.0308747493618,group16
11195.0,12126.0,567.6,2991.4750742746232,4722.0,5147.0,6218.0,411.8,-65.88,13031.0,-60.39,277.9,5490.0,599.1,-113.0,9.999999999999999e-26,1661.0,5199.0,9.999999999999999e-26,9.999999999999999e-26,-137.0,497.250553026707,-39.6026878848195,128.588938245118,148.6,1609.0,350.114242210237,-111.519620755236,1329.3941866124649,2655.19564841965,2022.317144822312,3794.290930278936,506.4010445115216,group16
7.892,59.71,147.9,366.8,19.22,7.549,25.74,97.8,209.7,35.34,297.2,73.09,45.3,50.6807869960091,19.8783585201075,1650.0,9.999999999999999e-26,14.76,-518.0,-98.8,151.3,84.55,569.6,75.6632939690667,-28.506462609893298,12.5524434738251,81.2235485069906,-3.06126418126691,581.5838985747699,312.973000300524,757.751720951051,1098.102822744545,802.712501635112,group17
35.0,82.35,-55.9,-219.3,33.29,20.93,78.92,67.94,3819.0,52.5,-647.2,106.7,92.65,311.912091238438,593.984949470293,1661.0,9.999999999999999e-26,11.32,6815.0,1809.0,165.1,-7.51,536.7,-6.23618846827454,3386.4965638237,12.7753920633378,26.9013723293653,804.054260959787,647.6085768418,833.780456933334,1014.959663830575,1442.413876123352,1186.412149409088,group17
48.73,9.608,84.76,181.2,48.73,26.77,9.951,-48.38,669.8,-15.44,260.1,60.74,59.71,9.999999999999999e-26,9.999999999999999e-26,2243.0,14.76,9.999999999999999e-26,24.71,14.07,175.7,9.999999999999999e-26,644.3,203.0,26.8,9.999999999999999e-26,9.999999999999999e-26,9.999999999999999e-26,9.999999999999999e-26,9.999999999999999e-26,9.999999999999999e-26,9.999999999999999e-26,9.999999999999999e-26,group18
44.27,50.79,193.2,419.0,68.29,-5.147,19.9,27.79,589.5,24.36,134.9,183.9,227.2,9.999999999999999e-26,9.999999999999999e-26,5199.0,11.32,9.999999999999999e-26,121.8,-12.3,373.0,9.999999999999999e-26,687.7,-11.7,26.8,9.999999999999999e-26,9.999999999999999e-26,9.999999999999999e-26,9.999999999999999e-26,9.999999999999999e-26,9.999999999999999e-26,9.999999999999999e-26,9.999999999999999e-26,group18
102.6,64.85,91.62,9.999999999999999e-26,9.999999999999999e-26,9.999999999999999e-26,-16.47,343.1,9.999999999999999e-26,159.6,9.999999999999999e-26,74.81,541.5,9.999999999999999e-26,9.999999999999999e-26,9.999999999999999e-26,-518.0,24.71,9.999999999999999e-26,23.68,621.4,9.999999999999999e-26,9.999999999999999e-26,9.999999999999999e-26,-141.0,9.999999999999999e-26,9.999999999999999e-26,9.999999999999999e-26,9.999999999999999e-26,9.999999999999999e-26,9.999999999999999e-26,9.999999999999999e-26,9.999999999999999e-26,group19
260.1,51.82,54.9,9.999999999999999e-26,9.999999999999999e-26,9.999999999999999e-26,61.42,880.2,9.999999999999999e-26,140.7,9.999999999999999e-26,-266.6,94.71,9.999999999999999e-26,9.999999999999999e-26,9.999999999999999e-26,6815.0,121.8,9.999999999999999e-26,87.5,873.6,9.999999999999999e-26,9.999999999999999e-26,9.999999999999999e-26,-151.0,9.999999999999999e-26,9.999999999999999e-26,9.999999999999999e-26,9.999999999999999e-26,9.999999999999999e-26,9.999999999999999e-26,9.999999999999999e-26,9.999999999999999e-26,group19
47.01,34.31,9.999999999999999e-26,9.999999999999999e-26,9.999999999999999e-26,9.999999999999999e-26,3.775,242.9,9.999999999999999e-26,31.91,151.3,87.85,9.999999999999999e-26,9.999999999999999e-26,9.999999999999999e-26,9.999999999999999e-26,-98.8,14.07,23.68,9.999999999999999e-26,460.8,9.999999999999999e-26,9.999999999999999e-26,9.999999999999999e-26,9.999999999999999e-26,9.999999999999999e-26,9.999999999999999e-26,9.999999999999999e-26,9.999999999999999e-26,9.999999999999999e-26,9.999999999999999e-26,9.999999999999999e-26,9.999999999999999e-26,group20
169.5,51.13,9.999999999999999e-26,9.999999999999999e-26,9.999999999999999e-26,9.999999999999999e-26,1.716,-7.206,9.999999999999999e-26,69.32,2.745,66.91,9.999999999999999e-26,9.999999999999999e-26,9.999999999999999e-26,9.999999999999999e-26,1809.0,-12.3,87.5,9.999999999999999e-26,2167.0,9.999999999999999e-26,9.999999999999999e-26,9.999999999999999e-26,9.999999999999999e-26,9.999999999999999e-26,9.999999999999999e-26,9.999999999999999e-26,9.999999999999999e-26,9.999999999999999e-26,9.999999999999999e-26,9.999999999999999e-26,9.999999999999999e-26,group20
174.0,155.4,326.0,548.3,156.1,137.6,288.9,400.1,602.9,236.1,-51.82,265.9,65.2,145.8,-184.365245811796,830.8,151.3,175.7,621.4,460.8,9.999999999999999e-26,73.2,138.7,128.2,115.099661547898,143.694176294672,155.341410868698,-215.12530214878,360.788110297738,122.973018448982,110.47719966747921,435.6568330048644,368.2381063111775,group21
239.5,240.9,287.9,2343.0,92.99,150.0,189.1,1201.0,1463.0,192.5,34.31,268.3,70.1,823.5,179.192534727848,-137.0,165.1,373.0,873.6,2167.0,9.999999999999999e-26,73.34,95.49,102.9,113.79303044166,156.716938835734,128.217571475459,251.314484782521,501.6044461404171,133.859325276601,150.547236768151,754.234000289442,-123.81220769742801,group21
91.24,44.0,156.468319901015,195.110240796869,14.43,15.42,153.4,125.77,197.0,113.1,93.0200009142077,106.4,23.33,232.26005631516,40.526012472141005,1225.616949800208,84.55,9.999999999999999e-26,9.999999999999999e-26,9.999999999999999e-26,73.2,9.999999999999999e-26,260.1,4.042,21.179548637214,26.6053474909923,67.8400345173893,53.4099196603557,142.817112330124,16.0241683066913,15.4885134543306,173.709509142035,1080.45435856995,group22
94.24,45.55,-234.418504327359,-238.595716048517,20.92,33.3,153.4,-231.1,-238.8,143.6,-166.266875380095,158.9,-25.4,169.180148972078,18.331065651724,-236.431316085641,-7.51,9.999999999999999e-26,9.999999999999999e-26,9.999999999999999e-26,73.34,9.999999999999999e-26,259.9,81.18,32.3202196185119,26.6968750020628,152.676618919392,19.3834129103778,-232.942801697908,28.8164753978784,33.2595539697493,-236.282285840147,238.459982779021,group22
416.3,520.52,728.1,50.036445519846595,394.5,581.3,753.6,753.6,753.6,65.8980103448769,68.0849555045737,685.9,204.7,32.485544250216,29.141171085675,1465.030608423524,569.6,644.3,9.999999999999999e-26,9.999999999999999e-26,138.7,260.1,9.999999999999999e-26,243.1,26.139146343025168,58.0539786485586,37.9213137904903,38.7470502402583,518.050131832856,510.904982386672,581.296087077282,731.85623170382,529.8783721874354,group23
513.4,673.22,750.9,65.2290689220912,378.1,517.1,590.5,590.5,590.5,63.4034038891651,61.631910419863004,559.3,222.8,24.8228336443234,21.7836244247275,1479.31641345787,536.7,687.7,9.999999999999999e-26,9.999999999999999e-26,95.49,259.9,9.999999999999999e-26,305.6,22.9136315978798,52.581867557486,34.010208209568205,28.7634281908498,675.596182297475,460.523864269092,517.810320573229,741.509425223201,583.6199453741381,group23
11.27,113.6,185.8,899.0,15.97,43.81,195.6,138.27895603302,700.44481430522,1269.0,123.334484863281,179.5,6.488,198.968295405696,22.3676217764088,792.41154049278,4.20378087339066,203.0,9.999999999999999e-26,9.999999999999999e-26,128.2,4.042,243.1,9.999999999999999e-26,340.1,4.8,77.4359952952548,24.0533559267534,159.898294067383,36.833678047359,43.2377745393749,368.938145947457,594.754655324874,group24
55.48,231.6,634.2,4655.0,24.48,53.1,361.3,369.214234056703,3621.36429962856,18666.0,285.881213378906,-1.612,8.774,1.3930647529041,15.3319217777686,1819.08662011191,48.7104281730948,-11.7,9.999999999999999e-26,9.999999999999999e-26,102.9,81.18,305.6,9.999999999999999e-26,766.0,7.9,45.8886056635119,33.0900283348788,489.76749572754,44.8144727808594,52.4354306462452,1665.36563327313,891.88171570905,group24
322.2,55.9,-70.0,16.5049299255453,240.6,32.6700532196327,37.1,-196.6,21.1186337273073,44.731946349593,11.7788058387886,46.0,282.4,-37.2992837751348,47.44582699779965,374.4,34.009204280210994,26.8,-141.0,9.999999999999999e-26,85.87612577918141,23.7689110389353,70.3114361692467,340.1,9.999999999999999e-26,340.0,172.3,27.556532640373597,144.72178606024,317.569337570262,328.537809158172,327.09183535002,319.66634133972997,group25
201.4,-28.5,233.7,29.985532436405997,347.3,53.5168792272877,-23.7,-397.4,31.046221820670304,-25.9463220471975,28.344791874088298,59.7,362.7,45.716749579813104,-109.376993187161,148.6,72.88542653211519,26.8,-151.0,9.999999999999999e-26,58.2900987765452,12.7544510805052,54.9544743670322,766.0,9.999999999999999e-26,665.7,1343.0,-156.786955378053,139.8014976588992,480.898479235306,547.944023505106,213.17313204740242,119.27790411264199,group25
86.1,107.4,162.786343027466,65.0159424785887,34.844141314637696,6.63389642013793,233.4,177.1,38.4244665072242,181.2,102.3,163.4,7.5,184.807851610498,211.977335349551,1376.0,4.8940535387101,9.999999999999999e-26,9.999999999999999e-26,9.999999999999999e-26,32.7563500701423,106.133288149952,28.6120472403103,4.8,340.0,5.98199320924337,140.556678211694,230.514113117351,172.972778182105,685.656343478219,658.2378297134829,1379.85549438291,879.063064729506,group26
87.5,200.8,2342.9499562884,866.977411522882,84.88438189589951,7.5123694875347,404.9,2559.4,466.916449692781,281.4,988.0,142.9,7.5,206.274998991893,286.706517105012,1609.0,7.76462152675399,9.999999999999999e-26,9.999999999999999e-26,9.999999999999999e-26,71.5632003548076,83.1283081680189,62.6331140127257,7.9,665.7,7.54579340581173,113.518124811462,341.582097042759,998.7907316655879,975.842031457531,976.8283186857143,1574.4931149690801,1316.5629966052575,group26
9.999999999999999e-26,9.999999999999999e-26,9.999999999999999e-26,9.999999999999999e-26,9.999999999999999e-26,9.999999999999999e-26,9.999999999999999e-26,9.999999999999999e-26,9.999999999999999e-26,-27.5,9.999999999999999e-26,5.1,257.0,9.999999999999999e-26,9.999999999999999e-26,9.999999999999999e-26,9.999999999999999e-26,9.999999999999999e-26,9.999999999999999e-26,9.999999999999999e-26,9.999999999999999e-26,9.999999999999999e-26,9.999999999999999e-26,9.999999999999999e-26,172.3,9.999999999999999e-26,9.999999999999999e-26,9.999999999999999e-26,9.999999999999999e-26,9.999999999999999e-26,9.999999999999999e-26,9.999999999999999e-26,9.999999999999999e-26,group27
9.999999999999999e-26,9.999999999999999e-26,9.999999999999999e-26,9.999999999999999e-26,9.999999999999999e-26,9.999999999999999e-26,9.999999999999999e-26,9.999999999999999e-26,9.999999999999999e-26,50.1,9.999999999999999e-26,48.4,98.8,9.999999999999999e-26,9.999999999999999e-26,9.999999999999999e-26,9.999999999999999e-26,9.999999999999999e-26,9.999999999999999e-26,9.999999999999999e-26,9.999999999999999e-26,9.999999999999999e-26,9.999999999999999e-26,9.999999999999999e-26,1343.0,9.999999999999999e-26,9.999999999999999e-26,9.999999999999999e-26,9.999999999999999e-26,9.999999999999999e-26,9.999999999999999e-26,9.999999999999999e-26,9.999999999999999e-26,group27
786.955010477819,437.726966246218,372.199890528443,565.55610269243,699.090661812842,157.2,276.239024432853,995.217192038327,1179.69790882371,475.341534585965,403.899728749392,132.622228990803,318.549434145768,-160.073949521085,-0.2,32.8239597789037,-3.06126418126691,9.999999999999999e-26,9.999999999999999e-26,9.999999999999999e-26,-215.12530214878,53.4099196603557,38.7470502402583,24.0533559267534,27.556532640373597,230.514113117351,92.1367320009855,9.999999999999999e-26,66.46910457554961,16.9523920911941,15.8277927273794,39.0613222439384,17.3710428164931,group28
1819.78950589152,501.782086195595,488.074986065007,1595.199308653884,1312.50686493543,127.886500916448,446.82218861383,-734.48161863924,-686.72274369836,863.03942529202,-352.58856853382764,197.7694021147,545.298489458679,153.29488409797798,7.02535411217272,-111.519620755236,804.054260959787,9.999999999999999e-26,9.999999999999999e-26,9.999999999999999e-26,251.314484782521,19.3834129103778,28.7634281908498,33.0900283348788,-156.786955378053,341.582097042759,95.4232511690772,9.999999999999999e-26,20.532952950432303,20.591019790382,13.007499887816701,-106.59467161492,-96.6746699943913,group28
1490.03931991497,925.56941923264,120.7680123905508,145.395612839928,803.026467538946,102.948740020153,1091.594026907952,314.78690024975936,454.19238495075604,50.9142935630377,115.823944175681,167.870052165331,1841.9904644895,458.57973525591444,33.4415204230629,1478.662297306108,581.5838985747699,9.999999999999999e-26,9.999999999999999e-26,9.999999999999999e-26,360.788110297738,142.817112330124,518.050131832856,159.898294067383,144.72178606024,172.972778182105,147.905765052225,66.46910457554961,9.999999999999999e-26,428.014785756561,103.558762712845,123.113301306636,50.7363256692518,group29
4577.534116427425,1764.26413560633,255.2988002265909,669.627089808685,1191.013117612976,165.802252382118,1911.209352928704,532.982408958228,-52.47382301305699,61.7718767948365,-43.89406849243205,379.404652664906,2507.2512896071503,479.485423390989,-45.018547459467,1329.3941866124649,647.6085768418,9.999999999999999e-26,9.999999999999999e-26,9.999999999999999e-26,501.6044461404171,-232.942801697908,675.596182297475,489.76749572754,139.8014976588992,998.7907316655879,14.1587726243446,20.532952950432303,9.999999999999999e-26,603.471785616757,178.049566881291,349.3163023987,-16.2944366064632,group29
2238.5967010669638,598.82077332738,199.279549514672,384.243636135404,692.973819145968,46.0031689842077,817.4312672894137,298.761109657545,671.039789150674,43.8786748218349,162.825393829049,123.43415514659,1264.23091262256,376.994162233776,48.73257317072425,1958.242105045528,312.973000300524,9.999999999999999e-26,9.999999999999999e-26,9.999999999999999e-26,122.973018448982,16.0241683066913,510.904982386672,36.833678047359,317.569337570262,685.656343478219,47.6552834255894,16.9523920911941,428.014785756561,9.999999999999999e-26,55.4079012143119,1084.46849224804,790.852452874047,group30
4193.424188842811,1332.567341872101,241.56181656865948,512.3731248547728,930.7171675988039,80.7112296573856,1596.2289813577918,491.326765647606,-296.38441047925875,161.876124493091,-28.617284262353998,243.855483874638,1884.214345359912,504.0373663926486,-59.616383921860255,2655.19564841965,833.780456933334,9.999999999999999e-26,9.999999999999999e-26,9.999999999999999e-26,133.859325276601,28.8164753978784,460.523864269092,44.8144727808594,480.898479235306,975.842031457531,98.7518129417342,20.591019790382,603.471785616757,9.999999999999999e-26,93.8722141369954,1515.065471137495,1416.9325005063101,group30
2492.7065492020597,464.853103999011,155.808209543163,388.078889967059,498.009316655714,39.5451873026368,660.0927614531265,278.179857580166,637.987554327784,15.1774322147719,115.828062677716,138.60281489265,649.286300818584,313.533738920574,48.03571350096945,1603.976251853017,757.751720951051,9.999999999999999e-26,9.999999999999999e-26,9.999999999999999e-26,110.47719966747921,15.4885134543306,581.296087077282,43.2377745393749,328.537809158172,658.2378297134829,54.8343488789448,15.8277927273794,103.558762712845,55.4079012143119,9.999999999999999e-26,1079.413599846305,795.5681991295455,group31
4030.92859008272,1017.9556517285174,182.4742202127734,404.636689065393,687.46927756886,76.2853380939272,1007.9357471116416,441.41870075431683,-323.10638347523627,76.4877541703626,-55.755658154306,232.180301697027,890.516646503508,433.590121123454,-58.724415569762584,2022.317144822312,1014.959663830575,9.999999999999999e-26,9.999999999999999e-26,9.999999999999999e-26,150.547236768151,33.2595539697493,517.810320573229,52.4354306462452,547.944023505106,976.8283186857143,99.0016424923689,13.007499887816701,178.049566881291,93.8722141369954,9.999999999999999e-26,1676.074480125878,1350.105063264115,group31
2728.47544932455,3667.4485726135003,210.24923165254597,605.064029373463,1485.777436094304,1686.377953473066,1375.404079806588,361.0486004638676,714.0235027396992,2966.547675356475,1754.087548613546,377.044079051244,1870.57466495037,555.8420869445808,28.259158828735384,1643.2156296787352,1098.102822744545,9.999999999999999e-26,9.999999999999999e-26,9.999999999999999e-26,435.6568330048644,173.709509142035,731.85623170382,368.938145947457,327.09183535002,1379.85549438291,9.999999999999999e-26,39.0613222439384,123.113301306636,1084.46849224804,1079.413599846305,9.999999999999999e-26,821.60781483937,group32
7634.1040021397,7389.938937703696,346.03807130408,1238.20765660835,2324.59367628808,2806.55653340634,3996.6834643765997,473.58004223295904,-132.200158647294,5386.05886506288,-57.46599550781253,265.10963403701766,3201.126245117192,588.244301300048,-105.64804855346699,3794.290930278936,1442.413876123352,9.999999999999999e-26,9.999999999999999e-26,9.999999999999999e-26,754.234000289442,-236.282285840147,741.509425223201,1665.36563327313,213.17313204740242,1574.4931149690801,9.999999999999999e-26,-106.59467161492,349.3163023987,1515.065471137495,1676.074480125878,9.999999999999999e-26,1517.716372111576,group32
2867.83304544492,3802.20009334002,324.561966065484,603.815950606386,1260.074772416188,1257.6,1201.111487562855,326.2870449872236,811.557056315979,2601.999468357534,1751.2879989941212,116.913376162152,1559.9688557714198,505.99656252779,21.651981147421303,1264.0308747493618,802.712501635112,9.999999999999999e-26,9.999999999999999e-26,9.999999999999999e-26,368.2381063111775,1080.45435856995,529.8783721874354,594.754655324874,319.66634133972997,879.063064729506,9.999999999999999e-26,17.3710428164931,50.7363256692518,790.852452874047,795.5681991295455,821.60781483937,9.999999999999999e-26,group33
7880.21936447945,6328.74456944622,333.503785681135,1433.9299213003,2334.27413052352,2015.862669218118,2255.741069013276,273.4855032960692,-407.490153921441,4413.669526959856,-54.919194765279,172.730656942373,3585.29107817223,530.521469227617,-94.22085331856835,506.4010445115216,1186.412149409088,9.999999999999999e-26,9.999999999999999e-26,9.999999999999999e-26,-123.81220769742801,238.459982779021,583.6199453741381,891.88171570905,119.27790411264199,1316.5629966052575,9.999999999999999e-26,-96.6746699943913,-16.2944366064632,1416.9325005063101,1350.105063264115,1517.716372111576,9.999999999999999e-26,group33
